{
  "project_info": {
    "project_number": "984874667274",
    "project_id": "flutter-crud-ffe5b",
    "storage_bucket": "flutter-crud-ffe5b.appspot.com"
  },
  "client": [
    {
      "client_info": {
        "mobilesdk_app_id": "1:984874667274:android:954ca33d7724b3f6d07ef3",
        "android_client_info": {
          "package_name": "com.example.flutter_firestore_crud2"
        }
      },
      "oauth_client": [
        {
          "client_id": "984874667274-jpc1amk2iisp2t0jv89uohtpr2k2o8md.apps.googleusercontent.com",
          "client_type": 1,
          "android_info": {
            "package_name": "com.example.flutter_firestore_crud2",
            "certificate_hash": "77eff34fd04413df346e3d8419dbd197b274c0dc"
          }
        },
        {
          "client_id": "984874667274-qgq78fmodvdgj6t5omvc71t3isqv81pr.apps.googleusercontent.com",
          "client_type": 3
        }
      ],
      "api_key": [
        {
          "current_key": "AIzaSyD9xbIrxQclyKrsk6UNMWFfYTrckRuHYfQ"
        }
      ],
      "services": {
        "appinvite_service": {
          "other_platform_oauth_client": [
            {
              "client_id": "984874667274-qgq78fmodvdgj6t5omvc71t3isqv81pr.apps.googleusercontent.com",
              "client_type": 3
            }
          ]
        }
      }
    }
  ],
  "configuration_version": "1"
}